test_sisa.vcd
$date
  Sat Apr 16 14:31:31 2016
$end
$version
  GHDL v0
$end
$timescale
  1 fs
$end
$var reg 1 ! clk $end
$var reg 16 " addr[15:0] $end
$var reg 16 # rd_data[15:0] $end
$var reg 16 $ wr_data[15:0] $end
$var reg 1 % reset_ram $end
$var reg 1 & reset_proc $end
$scope module proc0 $end
$var reg 1 ' boot $end
$var reg 1 ( clk $end
$var reg 16 ) datard_m[15:0] $end
$var reg 16 * addr_m[15:0] $end
$var reg 1 + op $end
$var reg 1 , wrd $end
$var reg 3 - addr_a[2:0] $end
$var reg 3 . addr_d[2:0] $end
$var reg 16 / immed[15:0] $end
$scope module datapath0 $end
$var reg 1 0 clk $end
$var reg 1 1 op $end
$var reg 1 2 wrd $end
$var reg 3 3 addr_a[2:0] $end
$var reg 3 4 addr_d[2:0] $end
$var reg 16 5 immed[15:0] $end
$var reg 16 6 d[15:0] $end
$var reg 16 7 x[15:0] $end
$scope module registers $end
$var reg 1 8 clk $end
$var reg 1 9 wrd $end
$var reg 16 : d[15:0] $end
$var reg 3 ; addr_a[2:0] $end
$var reg 3 < addr_d[2:0] $end
$var reg 16 = a[15:0] $end
$comment mem is not handled $end
$upscope $end
$scope module alu1 $end
$var reg 16 > x[15:0] $end
$var reg 16 ? y[15:0] $end
$var reg 1 @ op $end
$var reg 16 A w[15:0] $end
$upscope $end
$upscope $end
$scope module control $end
$var reg 1 B boot $end
$var reg 1 C clk $end
$var reg 16 D ir[15:0] $end
$var reg 1 E op $end
$var reg 1 F wrd $end
$var reg 3 G addr_a[2:0] $end
$var reg 3 H addr_d[2:0] $end
$var reg 16 I immed[15:0] $end
$var reg 16 J pc[15:0] $end
$var reg 1 K ldpc $end
$var reg 16 L n_pc[15:0] $end
$var reg 16 M new_pc[15:0] $end
$scope module control_logic $end
$var reg 16 N ir[15:0] $end
$var reg 1 O op $end
$var reg 1 P ldpc $end
$var reg 1 Q wrd $end
$var reg 3 R addr_a[2:0] $end
$var reg 3 S addr_d[2:0] $end
$var reg 16 T immed[15:0] $end
$upscope $end
$upscope $end
$upscope $end
$scope module mem0 $end
$var reg 1 U clk $end
$var reg 16 V addr[15:0] $end
$var reg 16 W wr_data[15:0] $end
$var reg 16 X rd_data[15:0] $end
$var reg 1 Y we $end
$var reg 1 Z byte_m $end
$var reg 1 [ boot $end
$comment mem is not handled $end
$var reg 16 \ addr1[15:0] $end
$var reg 8 ] lowbyte[7:0] $end
$upscope $end
$enddefinitions $end
#0
0!
bUUUUUUUUUUUUUUUU "
bUUUUUUUUUUUUUUUU #
b0000000000000000 $
0%
1&
1'
0(
bUUUUUUUUUUUUUUUU )
bUUUUUUUUUUUUUUUU *
U+
0,
bUUU -
bUUU .
bUUUUUUUUUUUUUUUU /
00
U1
02
bUUU 3
bUUU 4
bUUUUUUUUUUUUUUUU 5
b0000000000000000 6
b0000000000000000 7
08
09
b0000000000000000 :
bUUU ;
bUUU <
b0000000000000000 =
b0000000000000000 >
bUUUUUUUUUUUUUUUU ?
U@
b0000000000000000 A
1B
0C
bUUUUUUUUUUUUUUUU D
UE
0F
bUUU G
bUUU H
bUUUUUUUUUUUUUUUU I
bUUUUUUUUUUUUUUUU J
1K
b1100000000000000 L
bUUUUUUUUUUUUUUUU M
bUUUUUUUUUUUUUUUU N
UO
1P
0Q
bUUU R
bUUU S
bUUUUUUUUUUUUUUUU T
0U
bUUUUUUUUUUUUUUUU V
b0000000000000000 W
bUUUUUUUUUUUUUUUU X
0Y
0Z
0[
bXXXXXXXXXXXXXXXX \
bUUUUUUUU ]
#5000000
1%
1[
#10000000
1!
b1100000000000000 "
b0101101000110101 #
1(
b0101101000110101 )
b1100000000000000 *
0+
1,
b101 -
b101 .
b0000000000110101 /
10
01
12
b101 3
b101 4
b0000000000110101 5
b0000000000110101 6
18
19
b0000000000110101 :
b101 ;
b101 <
b0000000000110101 ?
0@
b0000000000110101 A
1C
b0101101000110101 D
0E
1F
b101 G
b101 H
b0000000000110101 I
b1100000000000000 J
b1100000000000000 M
b0101101000110101 N
0O
1Q
b101 R
b101 S
b0000000000110101 T
1U
b1100000000000000 V
b0101101000110101 X
b1100000000000001 \
b00110101 ]
#15000000
0%
0[
#20000000
0!
0(
00
08
0C
0U
#25000000
#30000000
1!
1(
10
b0000000000110101 7
18
b0000000000110101 =
b0000000000110101 >
1C
1U
#35000000
0&
0'
0B
b1100000000000010 L
#40000000
0!
0(
00
08
0C
0U
#50000000
1!
b1100000000000010 "
b0101101101000100 #
1(
b0101101101000100 )
b1100000000000010 *
1+
b0000000001000100 /
10
11
b0000000001000100 5
b0100010000110101 6
18
b0100010000110101 :
b0000000001000100 ?
1@
b0100010000110101 A
1C
b0101101101000100 D
1E
b0000000001000100 I
b1100000000000010 J
b1100000000000100 L
b1100000000000010 M
b0101101101000100 N
1O
b0000000001000100 T
1U
b1100000000000010 V
b0101101101000100 X
b1100000000000011 \
b01000100 ]
#60000000
0!
0(
00
08
0C
0U
#70000000
1!
b1100000000000100 "
b0101000011111111 #
1(
b0101000011111111 )
b1100000000000100 *
0+
b000 -
b000 .
b1111111111111111 /
10
01
b000 3
b000 4
b1111111111111111 5
b1111111111111111 6
b0000000000000000 7
18
b1111111111111111 :
b000 ;
b000 <
b0000000000000000 =
b0000000000000000 >
b1111111111111111 ?
0@
b1111111111111111 A
1C
b0101000011111111 D
0E
b000 G
b000 H
b1111111111111111 I
b1100000000000100 J
b1100000000000110 L
b1100000000000100 M
b0101000011111111 N
0O
b000 R
b000 S
b1111111111111111 T
1U
b1100000000000100 V
b0101000011111111 X
b1100000000000101 \
b11111111 ]
#80000000
0!
0(
00
08
0C
0U
#90000000
1!
b1100000000000110 "
b0101000100010000 #
1(
b0101000100010000 )
b1100000000000110 *
1+
b0000000000010000 /
10
11
b0000000000010000 5
b0001000011111111 6
b1111111111111111 7
18
b0001000011111111 :
b1111111111111111 =
b1111111111111111 >
b0000000000010000 ?
1@
b0001000011111111 A
1C
b0101000100010000 D
1E
b0000000000010000 I
b1100000000000110 J
b1100000000001000 L
b1100000000000110 M
b0101000100010000 N
1O
b0000000000010000 T
1U
b1100000000000110 V
b0101000100010000 X
b1100000000000111 \
b00010000 ]
#100000000
0!
0(
00
08
0C
0U
#110000000
1!
b1100000000001000 "
b1111111111111111 #
1(
b1111111111111111 )
b1100000000001000 *
0,
b111 -
b111 .
b1111111111111111 /
10
02
b111 3
b111 4
b1111111111111111 5
b1111111100000000 6
b0000000000000000 7
18
09
b1111111100000000 :
b111 ;
b111 <
b0000000000000000 =
b0000000000000000 >
b1111111111111111 ?
b1111111100000000 A
1C
b1111111111111111 D
0F
b111 G
b111 H
b1111111111111111 I
b1100000000001000 J
0K
b1100000000001000 L
b1100000000001000 M
b1111111111111111 N
0P
0Q
b111 R
b111 S
b1111111111111111 T
1U
b1100000000001000 V
b1111111111111111 X
b1100000000001001 \
b11111111 ]
